[
    {
        "id": 0,
        "username": "ad tempor sint ipsum",
        "liked_songs": [
            1,
            2,
            4,
            7,
            8,
            9,
            11,
            20,
            21,
            24,
            26,
            27,
            30,
            34,
            35,
            37,
            38,
            41,
            45,
            47,
            48
        ],
        "disliked_songs": [
            0,
            3,
            5,
            6,
            10,
            12,
            13,
            14,
            15,
            16,
            17,
            18,
            19,
            22,
            23,
            25,
            28,
            29,
            31,
            32,
            33,
            36,
            39,
            40,
            42,
            43,
            44,
            46,
            49
        ],
        "soundtracks": [
            1,
            4,
            3,
            4,
            5,
            6,
            7,
            8,
            9,
            10,
            11
        ]
    }
]