[
    {
        "id": 0,
        "trackName": "Bohemian Rhapsody",
        "artistName": "Queen",
        "artistId": 1,
        "genraId": 1,
        "releaseYear": 1975
    },
    {
        "id": 1,
        "trackName": "Like a Rolling Stone",
        "artistName": "Bob Dylan",
        "artistId": 2,
        "genraId": 2,
        "releaseYear": 1965
    },
    {
        "id": 2,
        "trackName": "Imagine",
        "artistName": "John Lennon",
        "artistId": 3,
        "genraId": 1,
        "releaseYear": 1971
    },
    {
        "id": 3,
        "trackName": "Billie Jean",
        "artistName": "Michael Jackson",
        "artistId": 4,
        "genraId": 3,
        "releaseYear": 1982
    },
    {
        "id": 4,
        "trackName": "Purple Haze",
        "artistName": "Jimi Hendrix",
        "artistId": 5,
        "genraId": 1,
        "releaseYear": 1967
    },
    {
        "id": 5,
        "trackName": "Smells Like Teen Spirit",
        "artistName": "Nirvana",
        "artistId": 6,
        "genraId": 4,
        "releaseYear": 1991
    },
    {
        "id": 6,
        "trackName": "Stairway to Heaven",
        "artistName": "Led Zeppelin",
        "artistId": 7,
        "genraId": 1,
        "releaseYear": 1971
    },
    {
        "id": 7,
        "trackName": "What's Going On",
        "artistName": "Marvin Gaye",
        "artistId": 8,
        "genraId": 5,
        "releaseYear": 1971
    },
    {
        "id": 8,
        "trackName": "Hotel California",
        "artistName": "Eagles",
        "artistId": 9,
        "genraId": 1,
        "releaseYear": 1976
    },
    {
        "id": 9,
        "trackName": "I Want to Hold Your Hand",
        "artistName": "The Beatles",
        "artistId": 10,
        "genraId": 1,
        "releaseYear": 1963
    },
    {
        "id": 10,
        "trackName": "Thriller",
        "artistName": "Michael Jackson",
        "artistId": 4,
        "genraId": 3,
        "releaseYear": 1982
    },
    {
        "id": 11,
        "trackName": "Hallelujah",
        "artistName": "Leonard Cohen",
        "artistId": 11,
        "genraId": 6,
        "releaseYear": 1984
    },
    {
        "id": 12,
        "trackName": "Superstition",
        "artistName": "Stevie Wonder",
        "artistId": 12,
        "genraId": 5,
        "releaseYear": 1972
    },
    {
        "id": 13,
        "trackName": "Lose Yourself",
        "artistName": "Eminem",
        "artistId": 13,
        "genraId": 7,
        "releaseYear": 2002
    },
    {
        "id": 14,
        "trackName": "Hey Jude",
        "artistName": "The Beatles",
        "artistId": 10,
        "genraId": 1,
        "releaseYear": 1968
    },
    {
        "id": 15,
        "trackName": "Sweet Child O' Mine",
        "artistName": "Guns N' Roses",
        "artistId": 14,
        "genraId": 1,
        "releaseYear": 1987
    },
    {
        "id": 16,
        "trackName": "Take on Me",
        "artistName": "a-ha",
        "artistId": 15,
        "genraId": 8,
        "releaseYear": 1985
    },
    {
        "id": 17,
        "trackName": "Let It Be",
        "artistName": "The Beatles",
        "artistId": 10,
        "genraId": 1,
        "releaseYear": 1970
    },
    {
        "id": 18,
        "trackName": "Under Pressure",
        "artistName": "Queen",
        "artistId": 1,
        "genraId": 1,
        "releaseYear": 1981
    },
    {
        "id": 19,
        "trackName": "Shape of You",
        "artistName": "Ed Sheeran",
        "artistId": 16,
        "genraId": 9,
        "releaseYear": 2017
    },
    {
        "id": 20,
        "trackName": "Uptown Funk",
        "artistName": "Mark Ronson feat. Bruno Mars",
        "artistId": 17,
        "genraId": 3,
        "releaseYear": 2014
    },
    {
        "id": 21,
        "trackName": "Viva la Vida",
        "artistName": "Coldplay",
        "artistId": 18,
        "genraId": 10,
        "releaseYear": 2008
    },
    {
        "id": 22,
        "trackName": "Eye of the Tiger",
        "artistName": "Survivor",
        "artistId": 19,
        "genraId": 1,
        "releaseYear": 1982
    },
    {
        "id": 23,
        "trackName": "Wonderwall",
        "artistName": "Oasis",
        "artistId": 20,
        "genraId": 10,
        "releaseYear": 1995
    },
    {
        "id": 24,
        "trackName": "Rolling in the Deep",
        "artistName": "Adele",
        "artistId": 21,
        "genraId": 9,
        "releaseYear": 2010
    },
    {
        "id": 25,
        "trackName": "Livin' on a Prayer",
        "artistName": "Bon Jovi",
        "artistId": 22,
        "genraId": 1,
        "releaseYear": 1986
    },
    {
        "id": 26,
        "trackName": "Despacito",
        "artistName": "Luis Fonsi",
        "artistId": 23,
        "genraId": 11,
        "releaseYear": 2017
    },
    {
        "id": 27,
        "trackName": "Wish You Were Here",
        "artistName": "Pink Floyd",
        "artistId": 24,
        "genraId": 1,
        "releaseYear": 1975
    },
    {
        "id": 28,
        "trackName": "Unfinished Sympathy",
        "artistName": "Massive Attack",
        "artistId": 25,
        "genraId": 12,
        "releaseYear": 1991
    },
    {
        "id": 29,
        "trackName": "No Woman, No Cry",
        "artistName": "Bob Marley",
        "artistId": 26,
        "genraId": 13,
        "releaseYear": 1974
    },
    {
        "id": 30,
        "trackName": "Karma Police",
        "artistName": "Radiohead",
        "artistId": 27,
        "genraId": 10,
        "releaseYear": 1997
    },
    {
        "id": 31,
        "trackName": "Old Town Road",
        "artistName": "Lil Nas X",
        "artistId": 28,
        "genraId": 14,
        "releaseYear": 2019
    },
    {
        "id": 32,
        "trackName": "Moondance",
        "artistName": "Van Morrison",
        "artistId": 29,
        "genraId": 15,
        "releaseYear": 1970
    },
    {
        "id": 33,
        "trackName": "Back in Black",
        "artistName": "AC/DC",
        "artistId": 30,
        "genraId": 1,
        "releaseYear": 1980
    },
    {
        "id": 34,
        "trackName": "Bad Guy",
        "artistName": "Billie Eilish",
        "artistId": 31,
        "genraId": 16,
        "releaseYear": 2019
    },
    {
        "id": 35,
        "trackName": "Smooth",
        "artistName": "Santana feat. Rob Thomas",
        "artistId": 32,
        "genraId": 1,
        "releaseYear": 1999
    },
    {
        "id": 36,
        "trackName": "Crazy in Love",
        "artistName": "Beyoncé feat. Jay-Z",
        "artistId": 33,
        "genraId": 3,
        "releaseYear": 2003
    },
    {
        "id": 37,
        "trackName": "Tiny Dancer",
        "artistName": "Elton John",
        "artistId": 34,
        "genraId": 9,
        "releaseYear": 1971
    },
    {
        "id": 38,
        "trackName": "Comfortably Numb",
        "artistName": "Pink Floyd",
        "artistId": 24,
        "genraId": 1,
        "releaseYear": 1979
    },
    {
        "id": 39,
        "trackName": "I Will Survive",
        "artistName": "Gloria Gaynor",
        "artistId": 35,
        "genraId": 3,
        "releaseYear": 1978
    },
    {
        "id": 40,
        "trackName": "Every Breath You Take",
        "artistName": "The Police",
        "artistId": 36,
        "genraId": 10,
        "releaseYear": 1983
    },
    {
        "id": 41,
        "trackName": "Blinding Lights",
        "artistName": "The Weeknd",
        "artistId": 37,
        "genraId": 16,
        "releaseYear": 2020
    },
    {
        "id": 42,
        "trackName": "Stand by Me",
        "artistName": "Ben E. King",
        "artistId": 38,
        "genraId": 5,
        "releaseYear": 1961
    },
    {
        "id": 43,
        "trackName": "Single Ladies",
        "artistName": "Beyoncé",
        "artistId": 33,
        "genraId": 3,
        "releaseYear": 2008
    },
    {
        "id": 44,
        "trackName": "Another Brick in the Wall",
        "artistName": "Pink Floyd",
        "artistId": 24,
        "genraId": 1,
        "releaseYear": 1979
    },
    {
        "id": 45,
        "trackName": "What a Wonderful World",
        "artistName": "Louis Armstrong",
        "artistId": 39,
        "genraId": 17,
        "releaseYear": 1967
    },
    {
        "id": 46,
        "trackName": "Wannabe",
        "artistName": "Spice Girls",
        "artistId": 40,
        "genraId": 8,
        "releaseYear": 1996
    },
    {
        "id": 47,
        "trackName": "Africa",
        "artistName": "Toto",
        "artistId": 41,
        "genraId": 1,
        "releaseYear": 1982
    },
    {
        "id": 48,
        "trackName": "Sicko Mode",
        "artistName": "Travis Scott",
        "artistId": 42,
        "genraId": 7,
        "releaseYear": 2018
    },
    {
        "id": 49,
        "trackName": "7 Rings",
        "artistName": "Ariana Grande",
        "artistId": 43,
        "genraId": 9,
        "releaseYear": 2019
    }
]
