[
    {
        "id": 0,
        "user_id": 0,
        "name": "magna esse do eu",
        "mood_id": 0,
        "tod_id": 0,
        "song_ids": [
            0,
            1,
            2
        ]
    },
    {
        "id": 1,
        "user_id": 0,
        "name": "Sad Time",
        "mood_id": 1,
        "tod_id": 1,
        "song_ids": [
            1,
            2,
            3
        ]
    },
    {
        "id": 2,
        "user_id": 0,
        "name": "Sad Time",
        "mood_id": 1,
        "tod_id": 0,
        "song_ids": [
            1,
            2,
            3
        ]
    },
    {
        "id": 3,
        "user_id": 0,
        "name": "enim",
        "mood_id": 1,
        "tod_id": 1,
        "song_ids": [
            1,
            2,
            3
        ]
    },
    {
        "id": 4,
        "user_id": 0,
        "name": "Soundtrack: 4",
        "mood_id": 1,
        "tod_id": 0,
        "song_ids": [
            27,
            37,
            47
        ]
    },
    {
        "id": 5,
        "user_id": 0,
        "name": "Soundtrack: 5",
        "mood_id": 2,
        "tod_id": 0,
        "song_ids": [
            21,
            30,
            34,
            48
        ]
    },
    {
        "id": 6,
        "user_id": 0,
        "name": "Soundtrack: 6",
        "mood_id": 1,
        "tod_id": 0,
        "song_ids": [
            27,
            37,
            47
        ]
    },
    {
        "id": 7,
        "user_id": 0,
        "name": "Soundtrack: 7",
        "mood_id": 2,
        "tod_id": 0,
        "song_ids": [
            21,
            30,
            34,
            48
        ]
    },
    {
        "id": 8,
        "user_id": 0,
        "name": "Soundtrack: 8",
        "mood_id": 1,
        "tod_id": 0,
        "song_ids": [
            27,
            37,
            47
        ]
    },
    {
        "id": 9,
        "user_id": 0,
        "name": "Soundtrack: 9",
        "mood_id": 2,
        "tod_id": 0,
        "song_ids": [
            21,
            30,
            34,
            48
        ]
    },
    {
        "id": 10,
        "user_id": 0,
        "name": "Soundtrack: 10",
        "mood_id": 1,
        "tod_id": 0,
        "song_ids": [
            27,
            37,
            47
        ]
    },
    {
        "id": 11,
        "user_id": 0,
        "name": "Soundtrack: 11",
        "mood_id": 2,
        "tod_id": 0,
        "song_ids": [
            21,
            30,
            34,
            48
        ]
    }
]